Manejo de Datos con R
…
# ENAHO: Analisis descriptivo

- Se realizara una tabla entre departamento e ingresos

``` r
#Ingresos por departamento 
Tabla <- Empleo_2021 %>% 
  group_by(rDpto) %>% 
  summarise(Promedio=mean(r6),
         Desv = sd(r6))

```

```
## # A tibble: 25 × 3
##    rDpto Promedio  Desv
##    <chr>    <dbl> <dbl>
##  1 01       1037. 1182.
##  2 02       1123. 1457.
##  3 03       1082. 1125.
##  4 04       1551. 1931.
##  5 05       1001. 1210.
##  6 06        944. 1402.
##  7 07       1476. 1364.
##  8 08       1083. 1211.
##  9 09        759.  861.
## 10 10       1020. 1278.
## # … with 15 more rows
```
…
